<?xml version="1.0" encoding="UTF-8" standalone="no"?>
<!-- Created with Inkscape (http://www.inkscape.org/) -->

<svg
   xmlns:dc="http://purl.org/dc/elements/1.1/"
   xmlns:cc="http://creativecommons.org/ns#"
   xmlns:rdf="http://www.w3.org/1999/02/22-rdf-syntax-ns#"
   xmlns:svg="http://www.w3.org/2000/svg"
   xmlns="http://www.w3.org/2000/svg"
   xmlns:xlink="http://www.w3.org/1999/xlink"
   xmlns:sodipodi="http://sodipodi.sourceforge.net/DTD/sodipodi-0.dtd"
   xmlns:inkscape="http://www.inkscape.org/namespaces/inkscape"
   width="283.46457"
   height="283.46457"
   id="svg2829"
   version="1.1"
   inkscape:version="0.47 r22583"
   sodipodi:docname="logo.svg"
   inkscape:export-filename="/home/ttn/build/ixin/spec/logo.png"
   inkscape:export-xdpi="95.885002"
   inkscape:export-ydpi="95.885002">
  <title
     id="title2824">IXIN Logo</title>
  <defs
     id="defs2831">
    <linearGradient
       id="linearGradient3632">
      <stop
         style="stop-color:#ff0000;stop-opacity:1;"
         offset="0"
         id="stop3634" />
      <stop
         style="stop-color:#000000;stop-opacity:1;"
         offset="1"
         id="stop3636" />
    </linearGradient>
    <inkscape:perspective
       sodipodi:type="inkscape:persp3d"
       inkscape:vp_x="0 : 212.5 : 1"
       inkscape:vp_y="0 : 1000 : 0"
       inkscape:vp_z="428.75 : 212.5 : 1"
       inkscape:persp3d-origin="214.375 : 141.66667 : 1"
       id="perspective2838" />
    <radialGradient
       inkscape:collect="always"
       xlink:href="#linearGradient3632"
       id="radialGradient3638"
       cx="148.78957"
       cy="256.42459"
       fx="148.78957"
       fy="256.42459"
       r="71.29155"
       gradientTransform="matrix(1,0,0,0.70026303,0,76.859931)"
       gradientUnits="userSpaceOnUse" />
  </defs>
  <sodipodi:namedview
     pagecolor="#ffffff"
     bordercolor="#666666"
     borderopacity="1.0"
     inkscape:pageopacity="0.0"
     inkscape:pageshadow="2"
     inkscape:zoom="1.8944167"
     inkscape:cx="141.87076"
     inkscape:cy="141.43346"
     inkscape:document-units="mm"
     inkscape:current-layer="layer1"
     id="namedview2833"
     showgrid="false"
     inkscape:window-width="1024"
     inkscape:window-height="768"
     inkscape:window-x="0"
     inkscape:window-y="0"
     inkscape:window-maximized="0"
     units="mm" />
  <metadata
     id="metadata2835">
    <rdf:RDF>
      <cc:Work
         rdf:about="">
        <dc:format>image/svg+xml</dc:format>
        <dc:type
           rdf:resource="http://purl.org/dc/dcmitype/StillImage" />
        <dc:title>IXIN Logo</dc:title>
        <dc:date>2012-12-20</dc:date>
        <dc:creator>
          <cc:Agent>
            <dc:title>Thien-Thi Nguyen</dc:title>
          </cc:Agent>
        </dc:creator>
        <cc:license
           rdf:resource="http://creativecommons.org/licenses/by-sa/3.0/" />
      </cc:Work>
      <cc:License
         rdf:about="http://creativecommons.org/licenses/by-sa/3.0/">
        <cc:permits
           rdf:resource="http://creativecommons.org/ns#Reproduction" />
        <cc:permits
           rdf:resource="http://creativecommons.org/ns#Distribution" />
        <cc:requires
           rdf:resource="http://creativecommons.org/ns#Notice" />
        <cc:requires
           rdf:resource="http://creativecommons.org/ns#Attribution" />
        <cc:permits
           rdf:resource="http://creativecommons.org/ns#DerivativeWorks" />
        <cc:requires
           rdf:resource="http://creativecommons.org/ns#ShareAlike" />
      </cc:License>
    </rdf:RDF>
  </metadata>
  <g
     inkscape:label="Layer 1"
     inkscape:groupmode="layer"
     id="layer1"
     transform="translate(0,-141.53513)">
    <path
       sodipodi:type="arc"
       style="fill:url(#radialGradient3638);fill-opacity:1;stroke:#000000;stroke-width:0.08415383;stroke-linecap:round;stroke-linejoin:miter;stroke-miterlimit:4;stroke-opacity:1;stroke-dasharray:none;stroke-dashoffset:0"
       id="path3622"
       sodipodi:cx="148.78957"
       sodipodi:cy="256.42459"
       sodipodi:rx="71.22905"
       sodipodi:ry="49.860336"
       d="m 220.01862,256.42459 a 71.22905,49.860336 0 1 1 -142.458104,0 71.22905,49.860336 0 1 1 142.458104,0 z"
       transform="matrix(1.9884062,0,0,2.8405802,-154.12181,-445.1272)" />
    <text
       xml:space="preserve"
       style="font-size:102.4847641px;font-style:italic;font-variant:normal;font-weight:bold;font-stretch:normal;fill:#fdff5c;fill-opacity:1;stroke:#000000;stroke-width:1;stroke-opacity:1;font-family:DejaVu Serif;-inkscape-font-specification:Bitstream Vera Sans Oblique"
       x="31.206388"
       y="251.74295"
       id="text2840"
       transform="scale(1.0055704,0.99446046)"><tspan
         sodipodi:role="line"
         id="tspan2842"
         x="31.206388"
         y="251.74295"
         style="stroke-width:1">(IX</tspan><tspan
         sodipodi:role="line"
         x="31.206388"
         y="379.84888"
         id="tspan2846"
         style="stroke-width:1"> IN)</tspan></text>
    <text
       xml:space="preserve"
       style="font-size:72px;font-style:italic;font-weight:bold;fill:#fdff5c;fill-opacity:1;stroke:none;font-family:Bitstream Vera Sans;-inkscape-font-specification:Bitstream Vera Sans Oblique"
       x="111.56822"
       y="299.83774"
       id="text2820"><tspan
         sodipodi:role="line"
         id="tspan2822"
         x="111.56822"
         y="299.83774">~</tspan></text>
  </g>
</svg>
